<svg width="10" height="3" viewBox="0 0 10 3" fill="none" xmlns="http://www.w3.org/2000/svg">
<path d="M5 0.999878L1.50015 0.856415C0.923055 0.832759 0.591421 1.50463 0.961178 1.94834C1.09574 2.10981 1.29863 2.19829 1.50852 2.18704L5 1.99988L8.49148 2.18704C8.70137 2.19829 8.90426 2.10981 9.03882 1.94834C9.40858 1.50463 9.07695 0.832759 8.49985 0.856415L5 0.999878Z" fill="#113D18"/>
</svg>
